{
  "CLIENT_ID":"6_430jek3uugu8ok8cg4sskcks48k88csowokowsksw44kcogkc0",
  "CLIENT_SECRET":"4alj8qebhe80ckssows00g0wsck0owoswco8cg84s0kw404448",
  "GRANT_TYPE":"password",
  "REDIRECT_URI":"http://localhost:3000/"
}